…
### Getting the scores

Then you can add your socres to your database or extract them by person
using `predict()`.

``` r
# For a single model
predict(fit$top1)
#> # A tibble: 4,585 × 5
#>       id response    item   SemDis_MEAN  top1
#>    <dbl> <chr>       <chr>        <dbl> <dbl>
#>  1 84176 ruler       pencil       0.876 0.142
#>  2 84176 nose picker pencil       0.959 0.142
#>  3 84176 scratch ear pencil       1.02  0.142
#>  4 84176 hammer      clock        0.871 0.142
#>  5 84176 table       clock        0.837 0.142
#>  6 84176 direction   clock        0.9   0.142
#>  7 84176 coaster     clock        0.938 0.142
#>  8 84176 latter      clock        0.979 0.142
#>  9 84176 ladder      bucket       0.763 0.142
#> 10 84176 seat        bucket       0.823 0.142
#> # ℹ 4,575 more rows

# For a whole list of models
predict(fit)
#> # A tibble: 4,585 × 7
#>       id response    item   SemDis_MEAN  top1   top2    top3
#>    <dbl> <chr>       <chr>        <dbl> <dbl>  <dbl>   <dbl>
#>  1 84176 ruler       pencil       0.876 0.142 0.0681 -0.0516
#>  2 84176 nose picker pencil       0.959 0.142 0.0681 -0.0516
#>  3 84176 scratch ear pencil       1.02  0.142 0.0681 -0.0516
#>  4 84176 hammer      clock        0.871 0.142 0.0681 -0.0516
#>  5 84176 table       clock        0.837 0.142 0.0681 -0.0516
#>  6 84176 direction   clock        0.9   0.142 0.0681 -0.0516
#>  7 84176 coaster     clock        0.938 0.142 0.0681 -0.0516
#>  8 84176 latter      clock        0.979 0.142 0.0681 -0.0516
#>  9 84176 ladder      bucket       0.763 0.142 0.0681 -0.0516
#> 10 84176 seat        bucket       0.823 0.142 0.0681 -0.0516
#> # ℹ 4,575 more rows
```

You can also extract person-level scores only by setting
`minimal = TRUE`.

``` r
predict(fit, minimal = TRUE)
#> # A tibble: 149 × 4
#>       id    top1    top2    top3
#>    <dbl>   <dbl>   <dbl>   <dbl>
#>  1 84176  0.142   0.0681 -0.0516
#>  2 84177 -0.508  -0.494  -0.444 
#>  3 84178 -0.0733 -0.0995 -0.0774
#>  4 84188  0.529   0.527   0.455 
#>  5 84193 -0.299  -0.350  -0.256 
#>  6 84206 -0.312  -0.301  -0.371 
#>  7 84211 -0.0464  0.0356  0.129 
#>  8 84226  0.238   0.210   0.0902
#>  9 84228  0.137   0.139   0.102 
#> 10 84236  0.459   0.422   0.409 
#> # ℹ 139 more rows
```

You can achieve more standard behaviour of `predict()` by also setting
`id_col = FALSE`. Then you can assign the result to a column manually.

``` r
mtscr_creativity$score <- predict(fit, id_col = FALSE)

mtscr_creativity |>
  tidyr::unnest_wider(score, names_sep = "_") # Use to expand list-col
#> # A tibble: 4,585 × 11
#>       id response    item   SemDis_MEAN score_id score_response score_item
#>    <dbl> <chr>       <chr>        <dbl>    <dbl> <chr>          <chr>     
#>  1 84176 ruler       pencil       0.876    84176 ruler          pencil    
#>  2 84176 nose picker pencil       0.959    84176 nose picker    pencil    
#>  3 84176 scratch ear pencil       1.02     84176 scratch ear    pencil    
#>  4 84176 hammer      clock        0.871    84176 hammer         clock     
#>  5 84176 table       clock        0.837    84176 table          clock     
#>  6 84176 direction   clock        0.9      84176 direction      clock     
#>  7 84176 coaster     clock        0.938    84176 coaster        clock     
#>  8 84176 latter      clock        0.979    84176 latter         clock     
#>  9 84176 ladder      bucket       0.763    84176 ladder         bucket    
#> 10 84176 seat        bucket       0.823    84176 seat           bucket    
#> # ℹ 4,575 more rows
#> # ℹ 4 more variables: score_SemDis_MEAN <dbl>, score_top1 <dbl>,
#> #   score_top2 <dbl>, score_top3 <dbl>
```
…
